…
```r
dbdata %>% filter(studyDesign=="Alpha") %>% slice(1) %>% unnest(TrialData) %>% count(GID) %$% median(n)
```

```
## [1] 3
```

```r
dbdata %>% filter(studyDesign=="RCBD") %>% 
      mutate(NperClone=map_dbl(TrialData,~median(table(.$GID))))
```

```
## # A tibble: 352 x 9
##    studyYear programName locationName studyName studyDesign TrialType Trait
##        <int> <chr>       <chr>        <chr>     <chr>       <chr>     <chr>
##  1      2016 IITA        Ibadan       16.GS.C0… RCBD        AYT       DM   
##  2      2016 IITA        Ibadan       16.GS.C0… RCBD        AYT       PLTHT
##  3      2016 IITA        Ibadan       16.GS.C0… RCBD        AYT       BRNH…
##  4      2016 IITA        Ibadan       16.GS.C0… RCBD        AYT       RTNO 
##  5      2016 IITA        Ibadan       16.GS.C0… RCBD        AYT       TCHA…
##  6      2016 IITA        Ibadan       16.GS.C0… RCBD        AYT       logF…
##  7      2016 IITA        Ibadan       16.GS.C0… RCBD        AYT       logT…
##  8      2016 IITA        Ibadan       16.GS.C0… RCBD        AYT       MCMDS
##  9      2016 IITA        Ikenne       16.GS.C0… RCBD        AYT       DM   
## 10      2016 IITA        Ikenne       16.GS.C0… RCBD        AYT       PLTHT
## # … with 342 more rows, and 2 more variables: TrialData <list>, NperClone <dbl>
```


```r
dbdata %>% filter(studyDesign=="Augmented") %>% slice(1) %>% unnest(TrialData) %>% count(replicate,blockNumber,rowNumber,colNumber)
```

```
## # A tibble: 21 x 5
##    replicate blockNumber rowNumber colNumber     n
##        <int>       <int>     <int>     <int> <int>
##  1         1           1        NA        NA    36
##  2         1           2        NA        NA    36
##  3         1           3        NA        NA    36
##  4         1           4        NA        NA    36
##  5         1           5        NA        NA    36
##  6         1           6        NA        NA    36
##  7         1           7        NA        NA    41
##  8         1           8        NA        NA    41
##  9         1           9        NA        NA    41
## 10         1          10        NA        NA    41
## # … with 11 more rows
```
…
```r
dbdata %>% filter(studyDesign=="RCBD")
```

```
## # A tibble: 352 x 8
##    studyYear programName locationName studyName studyDesign TrialType Trait
##        <int> <chr>       <chr>        <chr>     <chr>       <chr>     <chr>
##  1      2016 IITA        Ibadan       16.GS.C0… RCBD        AYT       DM   
##  2      2016 IITA        Ibadan       16.GS.C0… RCBD        AYT       PLTHT
##  3      2016 IITA        Ibadan       16.GS.C0… RCBD        AYT       BRNH…
##  4      2016 IITA        Ibadan       16.GS.C0… RCBD        AYT       RTNO 
##  5      2016 IITA        Ibadan       16.GS.C0… RCBD        AYT       TCHA…
##  6      2016 IITA        Ibadan       16.GS.C0… RCBD        AYT       logF…
##  7      2016 IITA        Ibadan       16.GS.C0… RCBD        AYT       logT…
##  8      2016 IITA        Ibadan       16.GS.C0… RCBD        AYT       MCMDS
##  9      2016 IITA        Ikenne       16.GS.C0… RCBD        AYT       DM   
## 10      2016 IITA        Ikenne       16.GS.C0… RCBD        AYT       PLTHT
## # … with 342 more rows, and 1 more variable: TrialData <list>
```
